Exploratory Data Analysis
…
salaries %>%
  group_by(service_time_floor) %>%
  filter(service_time_floor < 4)

## # A tibble: 866 × 6
## # Groups:   service_time_floor [4]
##    name                 position service_time_yrs salary_2022 simple_position
##    <chr>                <chr>               <dbl>       <dbl> <fct>          
##  1 Juan Soto            lf                   3.13    17100000 lf             
##  2 Yusei Kikuchi        lhp-s                3       16000000 lhp            
##  3 Ronald Acuna         lf                   3.16    15000000 lf             
##  4 Ke'Bryan Hayes       3b                   1.08    10000000 3b             
##  5 Seiya Suzuki         of                   0        8000000 of             
##  6 Vladimir Guerrero Jr 3b                   2.16     7900000 3b             
##  7 Pete Alonso          1b                   3        7400000 1b             
##  8 Eloy Jimenez         rf                   3        7333333 rf             
##  9 Walker Buehler       rhp                  3.17     7250000 rhp            
## 10 Max Fried            lhp-s                3.15     6850000 lhp            
## # ℹ 856 more rows
## # ℹ 1 more variable: service_time_floor <dbl>
…
